Exploratory Data Analysis: Demographics, Housing and COVID-19
…
What is the demographics makeup in California?

## # A tibble: 58 x 2
## # Rowwise: 
##    countyname   sum_races
##    <chr>            <dbl>
##  1 Alameda           1   
##  2 Alpine            1.00
##  3 Amador            1.00
##  4 Butte             1.00
##  5 Calaveras         1.00
##  6 Colusa            1.00
##  7 Contra Costa      1   
##  8 Del Norte         1.  
##  9 El Dorado         1.00
## 10 Fresno            1.  
## #  with 48 more rows
…
